{
  "id": "default",
  "context": {
    "prefLabel": "http://www.w3.org/2004/02/skos/core#prefLabel",
    "label": {
      "@id": "http://www.w3.org/2000/01/rdf-schema#label",
      "@language": "en"
    },
    "title": {
      "@id": "http://purl.org/dc/elements/1.1/title",
      "@language": "en"
    },
    "sameAs": {
      "@id": "http://www.w3.org/2002/07/owl#sameAs",
      "@type": "@id"
    },
    "url": {
      "@id": "http://xmlns.com/foaf/0.1/isPrimaryTopicOf",
      "@type": "@id"
    }
  },
  "template": {
    "file": "templates/default.html"
  }
}

